…
``` r
trans_ent |> 
  select(station_name, line) |> 
  distinct()
## # A tibble: 465 × 2
##    station_name             line    
##    <chr>                    <chr>   
##  1 25th St                  4 Avenue
##  2 36th St                  4 Avenue
##  3 45th St                  4 Avenue
##  4 53rd St                  4 Avenue
##  5 59th St                  4 Avenue
##  6 77th St                  4 Avenue
##  7 86th St                  4 Avenue
##  8 95th St                  4 Avenue
##  9 9th St                   4 Avenue
## 10 Atlantic Av-Barclays Ctr 4 Avenue
## # ℹ 455 more rows
```

The next code chunk is similar, but filters according to ADA compliance
as an initial step. This produces a dataframe in which the number of
rows is the number of ADA compliant stations.

``` r
trans_ent |> 
  filter(ada == TRUE) |> 
  select(station_name, line) |> 
  distinct()
## # A tibble: 84 × 2
##    station_name                   line           
##    <chr>                          <chr>          
##  1 Atlantic Av-Barclays Ctr       4 Avenue       
##  2 DeKalb Av                      4 Avenue       
##  3 Pacific St                     4 Avenue       
##  4 Grand Central                  42nd St Shuttle
##  5 34th St                        6 Avenue       
##  6 47-50th Sts Rockefeller Center 6 Avenue       
##  7 Church Av                      6 Avenue       
##  8 21st St                        63rd Street    
##  9 Lexington Av                   63rd Street    
## 10 Roosevelt Island               63rd Street    
## # ℹ 74 more rows
```
…
``` r
trans_ent |> 
  pivot_longer(
    route1:route11,
    names_to = "route_num",
    values_to = "route") |> 
  filter(route == "A") |> 
  select(station_name, line) |> 
  distinct()
## # A tibble: 60 × 2
##    station_name                  line           
##    <chr>                         <chr>          
##  1 Times Square                  42nd St Shuttle
##  2 125th St                      8 Avenue       
##  3 145th St                      8 Avenue       
##  4 14th St                       8 Avenue       
##  5 168th St - Washington Heights 8 Avenue       
##  6 175th St                      8 Avenue       
##  7 181st St                      8 Avenue       
##  8 190th St                      8 Avenue       
##  9 34th St                       8 Avenue       
## 10 42nd St                       8 Avenue       
## # ℹ 50 more rows
…
results = 
  read_csv('./results.csv', skip=2, na = c("NA", ".", "")) |> 
  janitor::clean_names() |> 
  rename(first_name=baker)
```

check and correct tables

``` r
anti_join(bakers, bakes, by = "first_name")
## # A tibble: 23 × 6
##    first_name last_name       series baker_age baker_occupation         hometown
##    <chr>      <chr>            <dbl>     <dbl> <chr>                    <chr>   
##  1 Alice      Fevronia            10        28 Geography teacher        Essex   
##  2 Amelia     LeBruin             10        24 Fashion designer         Halifax 
##  3 Antony     Amourdoux            9        30 Banker                   London  
##  4 Briony     Williams             9        33 Full-time parent         Bristol 
##  5 Dan        Beasley-Harling      9        36 Full-time parent         London  
##  6 Dan        Chambers            10        32 Support worker           Rotherh…
##  7 Helena     Garcia              10        40 Online project manager   Leeds   
##  8 Henry      Bird                10        20 Student                  Durham  
##  9 Imelda     McCarron             9        33 Countryside recreation … County …
## 10 Jamie      Finn                10        20 Part-time waiter         Surrey  
## # ℹ 13 more rows
anti_join(bakers, results, by = "first_name")
## # A tibble: 1 × 6
##   first_name last_name series baker_age baker_occupation hometown    
##   <chr>      <chr>      <dbl>     <dbl> <chr>            <chr>       
## 1 Jo         Wheatley       2        41 Housewife        Ongar, Essex
anti_join(bakes, results, by = c("series", "episode"))
## # A tibble: 0 × 5
## # ℹ 5 variables: series <dbl>, episode <dbl>, first_name <chr>,
## #   signature_bake <chr>, show_stopper <chr>

bakers|>
  mutate(first_name = ifelse(first_name == "Jo","Joanne", first_name))
## # A tibble: 120 × 6
##    first_name last_name   series baker_age baker_occupation             hometown
##    <chr>      <chr>        <dbl>     <dbl> <chr>                        <chr>   
##  1 Ali        Imdad            4        25 Charity worker               Saltley…
##  2 Alice      Fevronia        10        28 Geography teacher            Essex   
##  3 Alvin      Magallanes       6        37 Nurse                        Brackne…
##  4 Amelia     LeBruin         10        24 Fashion designer             Halifax 
##  5 Andrew     Smyth            7        25 Aerospace engineer           Derby /…
##  6 Annetha    Mills            1        30 Midwife                      Essex   
##  7 Antony     Amourdoux        9        30 Banker                       London  
##  8 Beca       Lyne-Pirkis      4        31 Military Wives' Choir Singer Aldersh…
##  9 Ben        Frazer           2        31 Graphic Designer             Northam…
## 10 Benjamina  Ebuehi           7        23 Teaching assistant           South L…
## # ℹ 110 more rows
```
…
